[
   {
      "ID":13,
      "post_author":"1",
      "post_date":"2017-08-17 01:15:25",
      "post_date_gmt":"2017-08-17 01:15:25",
      "post_content":"This is the fifth post.",
      "post_title":"Post 5",
      "post_excerpt":"",
      "post_status":"publish",
      "comment_status":"open",
      "ping_status":"open",
      "post_password":"",
      "post_name":"post-5",
      "to_ping":"",
      "pinged":"",
      "post_modified":"2017-08-17 01:15:25",
      "post_modified_gmt":"2017-08-17 01:15:25",
      "post_content_filtered":"",
      "post_parent":0,
      "guid":"http:\/\/localhost:8080\/?p=13",
      "menu_order":0,
      "post_type":"post",
      "post_mime_type":"",
      "comment_count":"0",
      "filter":"raw"
   },
   {
      "ID":11,
      "post_author":"1",
      "post_date":"2017-08-17 01:15:12",
      "post_date_gmt":"2017-08-17 01:15:12",
      "post_content":"This is the fourth post.",
      "post_title":"Post 4",
      "post_excerpt":"",
      "post_status":"publish",
      "comment_status":"open",
      "ping_status":"open",
      "post_password":"",
      "post_name":"post-4",
      "to_ping":"",
      "pinged":"",
      "post_modified":"2017-08-17 01:15:12",
      "post_modified_gmt":"2017-08-17 01:15:12",
      "post_content_filtered":"",
      "post_parent":0,
      "guid":"http:\/\/localhost:8080\/?p=11",
      "menu_order":0,
      "post_type":"post",
      "post_mime_type":"",
      "comment_count":"0",
      "filter":"raw"
   },
   {
      "ID":9,
      "post_author":"1",
      "post_date":"2017-08-17 01:14:56",
      "post_date_gmt":"2017-08-17 01:14:56",
      "post_content":"This is the third post.",
      "post_title":"Post 3",
      "post_excerpt":"",
      "post_status":"publish",
      "comment_status":"open",
      "ping_status":"open",
      "post_password":"",
      "post_name":"post-3",
      "to_ping":"",
      "pinged":"",
      "post_modified":"2017-08-17 01:14:56",
      "post_modified_gmt":"2017-08-17 01:14:56",
      "post_content_filtered":"",
      "post_parent":0,
      "guid":"http:\/\/localhost:8080\/?p=9",
      "menu_order":0,
      "post_type":"post",
      "post_mime_type":"",
      "comment_count":"0",
      "filter":"raw"
   },
   {
      "ID":7,
      "post_author":"1",
      "post_date":"2017-08-17 01:14:45",
      "post_date_gmt":"2017-08-17 01:14:45",
      "post_content":"This is the second post.",
      "post_title":"Post 2",
      "post_excerpt":"",
      "post_status":"publish",
      "comment_status":"open",
      "ping_status":"open",
      "post_password":"",
      "post_name":"post-2",
      "to_ping":"",
      "pinged":"",
      "post_modified":"2017-08-17 01:14:45",
      "post_modified_gmt":"2017-08-17 01:14:45",
      "post_content_filtered":"",
      "post_parent":0,
      "guid":"http:\/\/localhost:8080\/?p=7",
      "menu_order":0,
      "post_type":"post",
      "post_mime_type":"",
      "comment_count":"0",
      "filter":"raw"
   },
   {
      "ID":5,
      "post_author":"1",
      "post_date":"2017-08-17 01:14:27",
      "post_date_gmt":"2017-08-17 01:14:27",
      "post_content":"This is the first post.",
      "post_title":"Post 1",
      "post_excerpt":"",
      "post_status":"publish",
      "comment_status":"open",
      "ping_status":"open",
      "post_password":"",
      "post_name":"post-1",
      "to_ping":"",
      "pinged":"",
      "post_modified":"2017-08-17 01:14:27",
      "post_modified_gmt":"2017-08-17 01:14:27",
      "post_content_filtered":"",
      "post_parent":0,
      "guid":"http:\/\/localhost:8080\/?p=5",
      "menu_order":0,
      "post_type":"post",
      "post_mime_type":"",
      "comment_count":"0",
      "filter":"raw"
   }
]
